{
  "empty_field": "Поле не может быть пустым",
  "email_field_error": "Введите email, например example@example.com",
  "password_field_error": "Не верный пароль",
  "phone_field_error": "Не правильно указан номер",
  "date_field_error": "Не верная дата"
}
